<?xml version="1.0" standalone="no"?>
<!DOCTYPE svg PUBLIC "-//W3C//DTD SVG 20010904//EN"
 "http://www.w3.org/TR/2001/REC-SVG-20010904/DTD/svg10.dtd">
<svg version="1.0" xmlns="http://www.w3.org/2000/svg"
 width="256.000000pt" height="256.000000pt" viewBox="0 0 256.000000 256.000000"
 preserveAspectRatio="xMidYMid meet">
<metadata>
Created by potrace 1.11, written by Peter Selinger 2001-2013
</metadata>
<g transform="translate(0.000000,256.000000) scale(0.100000,-0.100000)"
fill="#000000" stroke="none">
<path d="M0 1280 l0 -1280 1280 0 1280 0 0 1280 0 1280 -1280 0 -1280 0 0
-1280z m1270 677 l0 -213 -187 -105 c-102 -57 -192 -105 -199 -107 -11 -3
-345 179 -371 202 -9 8 83 65 365 223 207 117 380 212 385 213 4 0 7 -96 7
-213z m458 -24 c182 -103 332 -189 332 -192 -1 -7 -365 -211 -377 -211 -5 0
-91 47 -193 103 l-185 104 -3 217 -2 218 47 -27 c27 -14 198 -110 381 -212z
m-1045 -343 l147 -93 -2 -220 -3 -220 -163 -103 c-89 -57 -165 -104 -167 -104
-3 0 -5 194 -5 431 l0 431 23 -14 c12 -8 88 -56 170 -108z m1383 -737 c-2 -2
-78 44 -170 103 l-166 106 0 216 0 217 168 107 167 107 3 -426 c1 -234 0 -428
-2 -430z m-991 69 l190 -107 3 -213 c2 -173 0 -213 -11 -210 -33 8 -757 422
-750 428 10 10 366 210 373 210 3 -1 91 -49 195 -108z m794 5 c101 -56 183
-107 183 -112 0 -7 -696 -404 -739 -422 -10 -4 -13 42 -13 210 l0 215 188 105
c103 58 189 106 192 106 3 1 88 -45 189 -102z"/>
</g>
</svg>
