<?xml version="1.0" encoding="UTF-8"?>
<svg width="560px" height="560px" viewBox="0 0 560 560" version="1.1" xmlns="http://www.w3.org/2000/svg" xmlns:xlink="http://www.w3.org/1999/xlink">
    <!-- Generator: Sketch 49.1 (51147) - http://www.bohemiancoding.com/sketch -->
    <title>arrow-up</title>
    <desc>Created with Sketch.</desc>
    <defs></defs>
    <g id="arrow-up" stroke="none" stroke-width="1" fill="none" fill-rule="evenodd">
        <path d="M256.150387,130.758683 C262.929038,123.919555 271.045575,120.5 280.5,120.5 C289.954425,120.5 298.070962,123.919555 304.849613,130.758683 L544.599613,372.647567 C551.199871,379.306718 554.5,387.40567 554.5,396.944442 C554.5,406.483215 551.155282,414.627171 544.465828,421.37631 C537.776373,428.12543 529.704425,431.5 520.25,431.5 C510.617183,431.5 502.500645,428.170434 495.900387,421.511284 L280.5,204.18924 L65.0996128,421.511284 C58.4993547,428.170434 50.3828171,431.5 40.75,431.5 C30.9388089,431.5 22.7776641,428.215419 16.2666021,421.646276 C9.75554013,415.077114 6.5,406.84317 6.5,396.944442 C6.5,387.40567 9.80012907,379.306718 16.4003872,372.647567 L256.150387,130.758683 L256.150387,130.758683 Z" fill="#000000"></path>
    </g>
</svg>