<?xml version="1.0" encoding="UTF-8"?>
<svg width="560px" height="560px" viewBox="0 0 560 560" version="1.1" xmlns="http://www.w3.org/2000/svg" xmlns:xlink="http://www.w3.org/1999/xlink">
    <!-- Generator: Sketch 49.1 (51147) - http://www.bohemiancoding.com/sketch -->
    <title>delete</title>
    <desc>Created with Sketch.</desc>
    <defs></defs>
    <g id="delete" stroke="none" stroke-width="1" fill="none" fill-rule="evenodd">
        <path d="M226.715835,0 L333.284165,0 C355.34714,0 374.183925,7.8125 389.79452,23.4375 C405.405115,39.0625 413.210413,57.9166667 413.210413,80 L413.210413,106.666667 L519.778743,106.666667 C527.132791,106.666667 533.411997,109.270833 538.615528,114.479167 C543.81906,119.6875 546.420826,125.9725 546.420826,133.333333 C546.420826,140.694167 543.81906,146.979167 538.615528,152.1875 C533.411997,157.395833 527.132791,160 519.778743,160 L493.136661,160 L493.136661,480 C493.136661,502.083333 485.331363,520.9375 469.720768,536.5625 C454.110173,552.1875 435.273388,560 413.210413,560 L146.789587,560 C124.726612,560 105.889827,552.1875 90.2792322,536.5625 C74.6686369,520.9375 66.8633393,502.083333 66.8633393,480 L66.8633393,160 L40.2212567,160 C32.8672093,160 26.5880035,157.395833 21.3844717,152.1875 C16.18094,146.979167 13.5791741,140.694167 13.5791741,133.333333 C13.5791741,125.9725 16.18094,119.6875 21.3844717,114.479167 C26.5880035,109.270833 32.8672093,106.666667 40.2212567,106.666667 L146.789587,106.666667 L146.789587,80 C146.789587,57.9166667 154.594885,39.0625 170.20548,23.4375 C185.816075,7.8125 204.65286,0 226.715835,0 L226.715835,0 Z M439.852496,480 L439.852496,160 L120.147504,160 L120.147504,480 C120.147504,487.360833 122.74927,493.645833 127.952802,498.854167 C133.156334,504.0625 139.43554,506.666667 146.789587,506.666667 L413.210413,506.666667 C420.56446,506.666667 426.843666,504.0625 432.047198,498.854167 C437.25073,493.645833 439.852496,487.360833 439.852496,480 L439.852496,480 Z M333.284165,53.3333333 L226.715835,53.3333333 C219.361787,53.3333333 213.082582,55.9375 207.87905,61.1458333 C202.675518,66.3541667 200.073752,72.6391667 200.073752,80 L200.073752,106.666667 L359.926248,106.666667 L359.926248,80 C359.926248,72.6391667 357.324482,66.3541667 352.12095,61.1458333 C346.917418,55.9375 340.638213,53.3333333 333.284165,53.3333333 L333.284165,53.3333333 Z" fill="#000000"></path>
    </g>
</svg>