<?xml version="1.0" encoding="UTF-8"?>
<svg width="560px" height="560px" viewBox="0 0 560 560" version="1.1" xmlns="http://www.w3.org/2000/svg" xmlns:xlink="http://www.w3.org/1999/xlink">
    <!-- Generator: Sketch 49.1 (51147) - http://www.bohemiancoding.com/sketch -->
    <title>download</title>
    <desc>Created with Sketch.</desc>
    <defs></defs>
    <g id="download" stroke="none" stroke-width="1" fill="none" fill-rule="evenodd">
        <path d="M350,58 C378.4375,58 405.629583,63.5591133 431.575521,74.6773399 C457.521458,85.7955665 479.852187,100.710759 498.567708,119.423645 C517.283229,138.136532 532.200521,160.464118 543.320312,186.406404 C554.440104,212.34869 560,239.536946 560,267.970443 C560,298.955665 553.619792,328.23998 540.859375,355.82266 C528.098958,383.40534 510.477187,406.948276 487.994792,426.450739 C465.512396,445.953202 439.991563,460.078818 411.432292,468.827586 L422.916667,457.527094 C429.479167,450.843764 434.583333,443.067567 438.229167,434.197044 C441.632188,425.934562 443.333333,416.942286 443.333333,407.221675 C443.333333,404.791704 443.272813,403.090069 443.151042,402.118227 C464.783229,387.05066 481.888021,367.761084 494.466146,344.248768 C507.044271,320.736453 513.333333,295.310345 513.333333,267.970443 C513.333333,245.855744 509.018854,224.712887 500.390625,204.541872 C491.762396,184.370857 480.15625,166.995074 465.572917,152.413793 C450.989583,137.832512 433.611354,126.228 413.4375,117.600985 C393.263646,108.97397 372.117813,104.660099 350,104.660099 C329.826146,104.660099 310.412083,108.274798 291.757812,115.504926 C273.103542,122.735054 256.697292,132.546798 242.539062,144.940887 C228.380833,157.334975 216.531875,172.159034 206.992188,189.413793 C197.4525,206.668552 191.284479,225.077419 188.489583,244.640394 L140,244.640394 C114.236354,244.640394 92.2395833,253.753695 74.0104167,271.980296 C55.78125,290.206897 46.6666667,312.200571 46.6666667,337.960591 C46.6666667,352.055586 49.4316667,365.118227 54.9609375,377.147783 C60.4902083,389.17734 67.7519792,399.050325 76.7447917,406.76601 C85.7376042,414.481695 95.73375,420.496473 106.731771,424.810345 C117.729792,429.124217 128.819688,431.280788 140,431.280788 L167.34375,431.280788 C171.596979,441.97397 177.065729,450.722739 183.75,457.527094 L204.348958,477.940887 L140,477.940887 C114.600938,477.940887 91.1764583,471.68333 69.7265625,459.167488 C48.2766667,446.651645 31.2936458,429.671015 18.7760417,408.224138 C6.2584375,386.777261 0,363.356079 0,337.960591 C0,312.565103 6.2584375,289.143921 18.7760417,267.697044 C31.2936458,246.250167 48.2766667,229.269537 69.7265625,216.753695 C91.1764583,204.237852 114.600938,197.980296 140,197.980296 L152.03125,197.980296 C161.632187,170.883172 176.09375,146.794167 195.416667,125.711823 C214.739583,104.629478 237.86,88.0738916 264.778646,76.044335 C291.697292,64.0147783 320.104167,58 350,58 L350,58 Z M303.333333,244.640394 C309.774063,244.640394 315.273438,246.918719 319.830729,251.475369 C324.388021,256.03202 326.666667,261.530621 326.666667,267.970443 L326.666667,421.62069 L356.744792,391.364532 C361.241563,386.868394 366.770833,384.62069 373.333333,384.62069 C380.017604,384.62069 385.5775,386.838502 390.013021,391.273399 C394.448542,395.708296 396.666667,401.267409 396.666667,407.950739 C396.666667,414.512315 394.418646,420.040808 389.921875,424.536946 L319.921875,494.527094 C315.425104,499.023232 309.895833,501.270936 303.333333,501.270936 C296.770833,501.270936 291.241563,499.023232 286.744792,494.527094 L216.744792,424.536946 C212.248021,419.79803 210,414.269537 210,407.950739 C210,401.510916 212.278646,396.012315 216.835938,391.455665 C221.393229,386.899015 226.892604,384.62069 233.333333,384.62069 C239.895833,384.62069 245.425104,386.868394 249.921875,391.364532 L280,421.62069 L280,267.970443 C280,261.530621 282.278646,256.03202 286.835938,251.475369 C291.393229,246.918719 296.892604,244.640394 303.333333,244.640394 L303.333333,244.640394 Z" fill="#000000"></path>
    </g>
</svg>