<?xml version="1.0" encoding="UTF-8"?>
<svg width="560px" height="560px" viewBox="0 0 560 560" version="1.1" xmlns="http://www.w3.org/2000/svg" xmlns:xlink="http://www.w3.org/1999/xlink">
    <!-- Generator: Sketch 49.1 (51147) - http://www.bohemiancoding.com/sketch -->
    <title>password</title>
    <desc>Created with Sketch.</desc>
    <defs></defs>
    <g id="password" stroke="none" stroke-width="1" fill="none" fill-rule="evenodd">
        <path d="M93.8568669,328.651763 L93.8568669,498.889145 L466.143133,498.889145 L466.143133,328.651763 L93.8568669,328.651763 L93.8568669,328.651763 Z M31.8091558,267.540907 L31.8091558,560 L528.190844,560 L528.190844,267.540907 L31.8091558,267.540907 Z M111.886058,267.459991 L111.886058,161.997461 C111.886058,117.279834 128.303435,79.1003229 161.138189,47.4601937 C193.972944,15.8200646 233.593985,0 280,0 C326.406015,0 366.027056,15.8200646 398.861811,47.4601937 C431.696565,79.1003229 448.113942,117.279834 448.113942,161.997461 L383.66275,182.389636 C383.66275,151.381032 373.539435,124.906162 353.292804,102.965905 C333.046173,81.0256482 308.614968,70.0555197 280,70.0555197 C251.385032,70.0555197 226.953827,81.0256482 206.707196,102.965905 C186.460565,124.906162 176.33725,151.381032 176.33725,182.389636 L176.33725,266.640223 C176.33725,266.913832 176.338038,267.187088 176.339614,267.459991 L111.886058,267.459991 Z" fill="#000000"></path>
    </g>
</svg>