<?xml version="1.0" encoding="UTF-8"?>
<svg width="560px" height="560px" viewBox="0 0 560 560" version="1.1" xmlns="http://www.w3.org/2000/svg" xmlns:xlink="http://www.w3.org/1999/xlink">
    <!-- Generator: Sketch 49.1 (51147) - http://www.bohemiancoding.com/sketch -->
    <title>select</title>
    <desc>Created with Sketch.</desc>
    <defs></defs>
    <g id="select" stroke="none" stroke-width="1" fill="none" fill-rule="evenodd">
        <path d="M432.727273,0 L483.636364,0 C504.715909,0 522.713068,7.45738636 537.627841,22.3721591 C552.542614,37.2869318 560,55.2840909 560,76.3636364 L560,127.272727 C560,134.299242 557.514205,140.298295 552.542614,145.269886 C547.571023,150.241477 541.57197,152.727273 534.545455,152.727273 C527.518939,152.727273 521.519886,150.241477 516.548295,145.269886 C511.576705,140.298295 509.090909,134.299242 509.090909,127.272727 L509.090909,76.3636364 C509.090909,69.3371212 506.605114,63.3380682 501.633523,58.3664773 C496.661932,53.3948864 490.662879,50.9090909 483.636364,50.9090909 L432.727273,50.9090909 C425.700758,50.9090909 419.701705,48.4232955 414.730114,43.4517045 C409.758523,38.4801136 407.272727,32.4810606 407.272727,25.4545455 C407.272727,18.4280303 409.758523,12.4289773 414.730114,7.45738636 C419.701705,2.48579545 425.700758,0 432.727273,0 L432.727273,0 Z M25.4545455,407.272727 C32.4810606,407.272727 38.4801136,409.758523 43.4517045,414.730114 C48.4232955,419.701705 50.9090909,425.700758 50.9090909,432.727273 L50.9090909,483.636364 C50.9090909,490.662879 53.3948864,496.661932 58.3664773,501.633523 C63.3380682,506.605114 69.3371212,509.090909 76.3636364,509.090909 L127.272727,509.090909 C134.299242,509.090909 140.298295,511.576705 145.269886,516.548295 C150.241477,521.519886 152.727273,527.518939 152.727273,534.545455 C152.727273,541.57197 150.241477,547.571023 145.269886,552.542614 C140.298295,557.514205 134.299242,560 127.272727,560 L76.3636364,560 C55.2840909,560 37.2869318,552.542614 22.3721591,537.627841 C7.45738636,522.713068 0,504.715909 0,483.636364 L0,432.727273 C0,425.700758 2.48579545,419.701705 7.45738636,414.730114 C12.4289773,409.758523 18.4280303,407.272727 25.4545455,407.272727 L25.4545455,407.272727 Z M25.4545455,203.636364 C32.4810606,203.636364 38.4801136,206.122159 43.4517045,211.09375 C48.4232955,216.065341 50.9090909,222.064394 50.9090909,229.090909 L50.9090909,330.909091 C50.9090909,337.935606 48.4232955,343.934659 43.4517045,348.90625 C38.4801136,353.877841 32.4810606,356.363636 25.4545455,356.363636 C18.4280303,356.363636 12.4289773,353.877841 7.45738636,348.90625 C2.48579545,343.934659 0,337.935606 0,330.909091 L0,229.090909 C0,222.064394 2.48579545,216.065341 7.45738636,211.09375 C12.4289773,206.122159 18.4280303,203.636364 25.4545455,203.636364 L25.4545455,203.636364 Z M229.090909,509.090909 L330.909091,509.090909 C337.935606,509.090909 343.934659,511.576705 348.90625,516.548295 C353.877841,521.519886 356.363636,527.518939 356.363636,534.545455 C356.363636,541.57197 353.877841,547.571023 348.90625,552.542614 C343.934659,557.514205 337.935606,560 330.909091,560 L229.090909,560 C222.064394,560 216.065341,557.514205 211.09375,552.542614 C206.122159,547.571023 203.636364,541.57197 203.636364,534.545455 C203.636364,527.518939 206.122159,521.519886 211.09375,516.548295 C216.065341,511.576705 222.064394,509.090909 229.090909,509.090909 L229.090909,509.090909 Z M76.3636364,0 L127.272727,0 C134.299242,0 140.298295,2.48579545 145.269886,7.45738636 C150.241477,12.4289773 152.727273,18.4280303 152.727273,25.4545455 C152.727273,32.4810606 150.241477,38.4801136 145.269886,43.4517045 C140.298295,48.4232955 134.299242,50.9090909 127.272727,50.9090909 L76.3636364,50.9090909 C69.3371212,50.9090909 63.3380682,53.3948864 58.3664773,58.3664773 C53.3948864,63.3380682 50.9090909,69.3371212 50.9090909,76.3636364 L50.9090909,127.272727 C50.9090909,134.299242 48.4232955,140.298295 43.4517045,145.269886 C38.4801136,150.241477 32.4810606,152.727273 25.4545455,152.727273 C18.4280303,152.727273 12.4289773,150.241477 7.45738636,145.269886 C2.48579545,140.298295 0,134.299242 0,127.272727 L0,76.3636364 C0,55.2840909 7.45738636,37.2869318 22.3721591,22.3721591 C37.2869318,7.45738636 55.2840909,0 76.3636364,0 L76.3636364,0 Z M534.545455,407.272727 C541.57197,407.272727 547.571023,409.758523 552.542614,414.730114 C557.514205,419.701705 560,425.700758 560,432.727273 L560,483.636364 C560,504.715909 552.542614,522.713068 537.627841,537.627841 C522.713068,552.542614 504.715909,560 483.636364,560 L432.727273,560 C425.700758,560 419.701705,557.514205 414.730114,552.542614 C409.758523,547.571023 407.272727,541.57197 407.272727,534.545455 C407.272727,527.518939 409.758523,521.519886 414.730114,516.548295 C419.701705,511.576705 425.700758,509.090909 432.727273,509.090909 L483.636364,509.090909 C490.662879,509.090909 496.661932,506.605114 501.633523,501.633523 C506.605114,496.661932 509.090909,490.662879 509.090909,483.636364 L509.090909,432.727273 C509.090909,425.700758 511.576705,419.701705 516.548295,414.730114 C521.519886,409.758523 527.518939,407.272727 534.545455,407.272727 L534.545455,407.272727 Z M534.545455,203.636364 C541.57197,203.636364 547.571023,206.122159 552.542614,211.09375 C557.514205,216.065341 560,222.064394 560,229.090909 L560,330.909091 C560,337.935606 557.514205,343.934659 552.542614,348.90625 C547.571023,353.877841 541.57197,356.363636 534.545455,356.363636 C527.518939,356.363636 521.519886,353.877841 516.548295,348.90625 C511.576705,343.934659 509.090909,337.935606 509.090909,330.909091 L509.090909,229.090909 C509.090909,222.064394 511.576705,216.065341 516.548295,211.09375 C521.519886,206.122159 527.518939,203.636364 534.545455,203.636364 L534.545455,203.636364 Z M229.090909,0 L330.909091,0 C337.935606,0 343.934659,2.48579545 348.90625,7.45738636 C353.877841,12.4289773 356.363636,18.4280303 356.363636,25.4545455 C356.363636,32.4810606 353.877841,38.4801136 348.90625,43.4517045 C343.934659,48.4232955 337.935606,50.9090909 330.909091,50.9090909 L229.090909,50.9090909 C222.064394,50.9090909 216.065341,48.4232955 211.09375,43.4517045 C206.122159,38.4801136 203.636364,32.4810606 203.636364,25.4545455 C203.636364,18.4280303 206.122159,12.4289773 211.09375,7.45738636 C216.065341,2.48579545 222.064394,0 229.090909,0 L229.090909,0 Z" fill="#000000"></path>
    </g>
</svg>